<?xml version="1.0" encoding="utf-8" ?>
<svg xmlns="http://www.w3.org/2000/svg" xmlns:xlink="http://www.w3.org/1999/xlink" width="64" height="64">
	<defs>
		<clipPath id="clip_0">
			<rect x="-806" y="-325" width="1558" height="720" clip-rule="evenodd"/>
		</clipPath>
	</defs>
	<g clip-path="url(#clip_0)">
		<path fill="rgb(33,167,194)" stroke="none" transform="translate(25.3088 22.2731)" d="M13.3427 2.79993C11.5637 1.0209 9.14693 0 6.6295 0L6.61258 0C4.11179 0 1.77903 0.936881 0 2.66573L6.71323 9.39559L13.3427 2.79993L13.3427 2.79993Z"/>
	</g>
	<defs>
		<clipPath id="clip_1">
			<rect x="-806" y="-325" width="1558" height="720" clip-rule="evenodd"/>
		</clipPath>
	</defs>
	<g clip-path="url(#clip_1)">
		<path fill="rgb(33,167,194)" stroke="none" d="M31.9718 0C14.3225 0 0 14.3225 0 31.9718C0 49.6211 14.3225 63.9436 31.9718 63.9436C49.6211 63.9436 63.9436 49.6211 63.9436 31.9718C63.9436 14.3225 49.6211 0 31.9718 0ZM24.3189 24.6502C26.2992 22.5522 29.0013 21.4273 31.9047 21.4273L31.9216 21.4273C34.8586 21.4273 37.6782 22.6363 39.6417 24.8179L39.9436 25.1286L32.022 33.004L24 24.967L24.3189 24.6502ZM31.9887 41.4449L31.9718 41.4449C26.6181 41.4449 22.2545 37.0422 22.2712 31.6885C22.2712 29.8928 22.7747 28.136 23.6978 26.6257L23.8655 26.3347L24.755 27.2214C24.5873 27.4732 24.4362 27.7402 24.3355 28.0424C23.6307 29.9726 24.6375 32.1032 26.5845 32.808C27.7019 33.2007 28.9389 33.0452 29.9244 32.3882L31.9887 34.4692L34.355 32.1026C34.5732 32.2537 34.825 32.371 35.0934 32.4717C36.99 33.143 39.071 32.1528 39.7423 30.2731C40.1452 29.1654 39.9605 28.0075 39.373 27.0844L40.1114 26.346L40.296 26.648C41.2181 28.1799 41.7054 29.934 41.7057 31.722C41.6891 37.0757 37.3424 41.4449 31.9887 41.4449ZM36.6712 31.2464C37.762 31.2464 38.6515 30.3569 38.6515 29.266C38.6538 28.8715 38.5367 28.4854 38.3157 28.1586L35.5634 30.9109C35.8823 31.1288 36.2516 31.2464 36.6712 31.2464ZM28.632 31.0786C28.2889 31.3523 27.8625 31.5004 27.4236 31.4981C26.3328 31.4981 25.4432 30.6086 25.4432 29.5178C25.4432 29.0647 25.5944 28.6452 25.8461 28.3094L28.632 31.0786ZM9.18048 33.6629C12.7385 36.8685 18.2434 37.8587 22.2376 38.1105L23.1773 38.1866L22.6402 37.4064C21.4152 35.577 20.7774 33.4463 20.7774 31.2309C20.7776 30.7484 20.8112 30.2666 20.8781 29.7888L20.9621 29.3216L6.42819 29.3216L6.54548 29.8223C6.5624 29.906 6.98192 31.6992 9.18048 33.6629ZM41.7057 38.1107C45.7002 37.859 51.2217 36.8688 54.7798 33.6632C56.9617 31.6995 57.3812 29.9063 57.3979 29.8223L57.5154 29.3216L42.9815 29.3216L43.0483 29.789C43.1154 30.2757 43.149 30.7262 43.149 31.2297C43.149 33.4283 42.5112 35.5598 41.2862 37.389L40.766 38.1778L41.7057 38.1107Z" fill-rule="evenodd"/>
	</g>
</svg>
