<?xml version="1.0" encoding="utf-8" ?>
<svg xmlns="http://www.w3.org/2000/svg" xmlns:xlink="http://www.w3.org/1999/xlink" width="64" height="89">
	<defs>
		<clipPath id="clip_0">
			<rect x="-1244" y="-302" width="1558" height="720" clip-rule="evenodd"/>
		</clipPath>
	</defs>
	<g clip-path="url(#clip_0)">
		<path fill="rgb(52,103,103)" stroke="none" transform="translate(0 25.0011)" d="M53.4366 8.97523L55.0651 10.604L63.9436 31.9704L55.0651 53.3368L53.4366 54.9656C46.283 57.96 39.1356 60.9706 31.9721 63.9414C24.8086 60.9706 17.6609 57.96 10.5073 54.9656L8.87852 53.3368L0 31.9704L8.87852 10.6043L10.5073 8.97551C15.517 6.87845 20.5262 4.77744 25.538 2.68377L29.6709 0.953515L30.8153 0.479295L31.9718 0L33.128 0.479295L34.2727 0.953515L38.4059 2.68349C43.4177 4.77716 48.4266 6.87817 53.4366 8.97523ZM31.9718 50.8992L45.3563 45.3549L50.9003 31.9704L45.356 18.5862L31.9718 13.0419L18.5873 18.5865L13.0433 31.9707L18.5873 45.3551L31.9718 50.8992Z" fill-rule="evenodd"/>
	</g>
	<defs>
		<clipPath id="clip_1">
			<path d="M55.0651 35.6051L53.4366 33.9764C48.4266 31.8793 43.4177 29.7783 38.4059 27.6846L34.2727 25.9546L33.128 25.4804L31.9718 25.0011L30.8153 25.4804L29.6709 25.9546L25.538 27.6849C20.5262 29.7786 15.517 31.8796 10.5073 33.9766L8.87852 35.6054L0 56.9715L8.87852 78.3379L10.5073 79.9667C17.6609 82.9612 24.8086 85.9717 31.9721 88.9425C39.1356 85.9717 46.283 82.9612 53.4366 79.9667L55.0651 78.3379L63.9436 56.9715L55.0651 35.6051ZM45.3563 70.356L31.9718 75.9003L18.5873 70.3563L13.0433 56.9718L18.5873 43.5876L31.9718 38.043L45.356 43.5873L50.9003 56.9715L45.3563 70.356Z" clip-rule="evenodd"/>
		</clipPath>
	</defs>
	<g clip-path="url(#clip_1)">
		<path fill="rgb(250,187,55)" stroke="none" transform="matrix(0.707107 0.707107 -0.707107 0.707107 31.8345 0)" d="M0 0L40.7782 0L40.7782 40.7782L0 40.7782L0 0Z"/>
	</g>
	<defs>
		<clipPath id="clip_2">
			<rect x="-1244" y="-302" width="1558" height="720" clip-rule="evenodd"/>
		</clipPath>
	</defs>
	<g clip-path="url(#clip_2)">
		<path fill="rgb(81,126,126)" stroke="none" transform="translate(18.5874 43.5873)" d="M13.3845 0L3.92035 3.92035L0 13.3845L3.92035 22.8483L13.3845 26.7689L22.8486 22.8483L26.7689 13.3845L22.8486 3.92035L13.3845 0Z"/>
	</g>
</svg>
