<?xml version="1.0" encoding="utf-8" ?>
<svg xmlns="http://www.w3.org/2000/svg" xmlns:xlink="http://www.w3.org/1999/xlink" width="64" height="64">
	<defs>
		<clipPath id="clip_0">
			<rect x="-365" y="-443" width="1558" height="720" clip-rule="evenodd"/>
		</clipPath>
	</defs>
	<g clip-path="url(#clip_0)">
		<path fill="rgb(107,145,192)" stroke="none" transform="translate(0 0.0999985)" d="M31.7 63.4C49.2074 63.4 63.4 49.2074 63.4 31.7C63.4 14.1926 49.2074 0 31.7 0C14.1926 0 0 14.1926 0 31.7C0 49.2074 14.1926 63.4 31.7 63.4Z"/>
	</g>
	<defs>
		<clipPath id="clip_1">
			<rect x="-365" y="-443" width="1558" height="720" clip-rule="evenodd"/>
		</clipPath>
	</defs>
	<g clip-path="url(#clip_1)">
		<path fill="rgb(255,255,255)" stroke="none" transform="translate(16.5 15.8)" d="M28.2 0.1C28.9 0 29.5 0 30.2 0C30.4 0 30.4 0 30.6 0.3L30.6 5.2C30.6 13 30.5 20.7 30.5 28.4C30.5 28.8 30.5 29.2 30.4 29.6C30.3 30.4 29.9 31 29.3 31.4C28.6 31.8 27.9 32.1 27.1 32.1C26.7 32.1 26.3 32 25.9 31.8C25.3 31.5 24.7 31.1 24.1 30.7L17.8 26.2C14.3 23.6 10.7 21.1 7.2 18.6C6.8 18.3 6.5 18.1 6.1 17.8C6 17.8 6 17.7 5.9 17.7L5.9 26.3C5.9 27.1 5.8 27.9 5.8 28.7C5.6 30.4 4.5 31.4 3.2 31.8C2.5 32 1.8 32 1.1 32L0.3 32C0.1 32 0.1 32 0.1 31.8L0.1 30.5C0 22.3 0 14 0 5.8L0 3.6Q-3.72529e-09 2.7 0.3 1.8C0.5 1.4 0.7 1 1.1 0.8C1.5 0.5 2 0.2 2.6 0.1C3.1 0 3.7 0 4.2 0C4.7 0 5.2 0.2 5.7 0.4C6.2 0.6 6.8 1 7.3 1.3C9.8 2.9 12.2 4.4 14.6 6C16.5 7.2 18.4 8.5 20.3 9.7C21.7 10.7 23.2 11.6 24.6 12.5C24.7 12.6 24.7 12.6 24.8 12.6L24.8 5.2C24.8 4.6 24.9 3.9 24.9 3.3C24.9 2.7 25.1 2.1 25.4 1.6C25.5 1.3 25.7 1.2 25.9 1C26.5 0.4 27.3 0.2 28.2 0.1ZM24.3 24.1C24.5 24 24.6 23.8 24.6 23.6L24.6 19.7C24.7 19.2 24.5 18.9 24.1 18.7C23.6 18.3 23.2 18 22.7 17.7C20.4 16.2 18.2 14.6 15.9 13.1C13.3 11.4 10.7 9.6 8.1 7.9C7.7 7.6 7.3 7.4 6.9 7.1Q6.6 6.95 6.3 7.1C6.2 7.2 6.1 7.3 6 7.5C5.9 7.7 5.9 7.9 5.9 8.1C5.8 8.9 5.8 9.8 5.8 10.6L5.8 11.1C5.8 11.6 6 11.9 6.4 12.2C6.7 12.5 7 12.7 7.3 12.9C9.3 14.3 11.3 15.6 13.3 17C16.2 18.9 19.1 20.9 22 22.8C22.5 23.2 23.1 23.6 23.7 24C23.9 24.2 24.1 24.2 24.3 24.1Z" fill-rule="evenodd"/>
	</g>
</svg>
