<?xml version="1.0" encoding="utf-8" ?>
<svg xmlns="http://www.w3.org/2000/svg" xmlns:xlink="http://www.w3.org/1999/xlink" width="65" height="64">
	<defs>
		<clipPath id="clip_0">
			<rect x="-658" y="-443" width="1558" height="720" clip-rule="evenodd"/>
		</clipPath>
	</defs>
	<g clip-path="url(#clip_0)">
		<path fill="rgb(2,143,187)" stroke="none" transform="translate(0.899994 0.0999985)" d="M31.7 63.4C49.2074 63.4 63.4 49.2074 63.4 31.7C63.4 14.1926 49.2074 0 31.7 0C14.1926 0 0 14.1926 0 31.7C0 49.2074 14.1926 63.4 31.7 63.4Z"/>
	</g>
	<defs>
		<clipPath id="clip_1">
			<rect x="-658" y="-443" width="1558" height="720" clip-rule="evenodd"/>
		</clipPath>
	</defs>
	<g clip-path="url(#clip_1)">
		<path fill="none" stroke="rgb(255,255,255)" stroke-width="4" stroke-miterlimit="4" transform="translate(11 35.4)" d="M0 0L8.1 0"/>
	</g>
	<defs>
		<clipPath id="clip_2">
			<rect x="-658" y="-443" width="1558" height="720" clip-rule="evenodd"/>
		</clipPath>
	</defs>
	<g clip-path="url(#clip_2)">
		<path fill="none" stroke="rgb(255,255,255)" stroke-width="4" stroke-miterlimit="4" transform="translate(11 28.2)" d="M0 0L5.4 0L16.2 7.2L22.5 7.2"/>
	</g>
	<defs>
		<clipPath id="clip_3">
			<rect x="-658" y="-443" width="1558" height="720" clip-rule="evenodd"/>
		</clipPath>
	</defs>
	<g clip-path="url(#clip_3)">
		<path fill="none" stroke="rgb(255,255,255)" stroke-width="4" stroke-miterlimit="4" transform="translate(26.3 28.2)" d="M0 0L5.4 0L16.2 7.2L22.5 7.2"/>
	</g>
	<defs>
		<clipPath id="clip_4">
			<rect x="-658" y="-443" width="1558" height="720" clip-rule="evenodd"/>
		</clipPath>
	</defs>
	<g clip-path="url(#clip_4)">
		<path fill="none" stroke="rgb(255,255,255)" stroke-width="4" stroke-miterlimit="4" transform="translate(41.6 28.2)" d="M0 0L12.6 0L12.6 6.3"/>
	</g>
</svg>
