<?xml version="1.0" encoding="utf-8" ?>
<svg xmlns="http://www.w3.org/2000/svg" xmlns:xlink="http://www.w3.org/1999/xlink" width="64" height="64">
	<defs>
		<clipPath id="clip_0">
			<path d="M64 32C64 49.6731 49.6731 64 32 64C14.3269 64 0 49.6731 0 32C0 14.3269 14.3269 0 32 0C49.6731 0 64 14.3269 64 32Z" clip-rule="evenodd"/>
		</clipPath>
	</defs>
	<g clip-path="url(#clip_0)">
		<path fill="none" stroke="rgb(239,239,239)" stroke-width="2" stroke-miterlimit="4" d="M32 64C49.6731 64 64 49.6731 64 32C64 14.3269 49.6731 0 32 0C14.3269 0 0 14.3269 0 32C0 49.6731 14.3269 64 32 64Z"/>
	</g>
	<defs>
		<clipPath id="clip_1">
			<rect x="-805" y="-567" width="1558" height="720" clip-rule="evenodd"/>
		</clipPath>
	</defs>
	<g clip-path="url(#clip_1)">
		<path fill="rgb(134,82,165)" stroke="none" transform="translate(22.1885 13.0622)" d="M3.04493 0C4.73656 0 6.08987 1.3533 6.08987 3.04493C6.08987 4.73656 4.73656 6.08987 3.04493 6.08987C1.3533 6.08987 0 4.73656 0 3.04493C0 1.3533 1.3815 0 3.04493 0Z"/>
	</g>
	<defs>
		<clipPath id="clip_2">
			<rect x="-805" y="-567" width="1558" height="720" clip-rule="evenodd"/>
		</clipPath>
	</defs>
	<g clip-path="url(#clip_2)">
		<path fill="rgb(231,61,84)" stroke="none" transform="translate(22.1614 13.2607)" d="M1.09846 11.2764L15.1672 0.562775C16.3795 -0.367621 18.0993 -0.113876 19.0297 1.09846C19.9601 2.31079 19.7064 4.03062 18.4941 4.96101L4.42533 15.6747C3.91784 16.0412 3.32577 16.2385 2.76189 16.2385C1.91608 16.2385 1.09846 15.872 0.562776 15.139C-0.367621 13.9548 -0.113876 12.2068 1.09846 11.2764L1.09846 11.2764Z"/>
	</g>
	<defs>
		<clipPath id="clip_3">
			<rect x="-805" y="-567" width="1558" height="720" clip-rule="evenodd"/>
		</clipPath>
	</defs>
	<g clip-path="url(#clip_3)">
		<path fill="rgb(244,149,83)" stroke="none" transform="translate(22.1614 24.2281)" d="M1.09846 11.2764L15.1672 0.562775C16.3795 -0.367621 18.0993 -0.113876 19.0297 1.09846C19.9601 2.31079 19.7064 4.03062 18.4941 4.96101L4.42533 15.6747C3.91784 16.0412 3.32577 16.2385 2.76189 16.2385C1.91608 16.2385 1.09846 15.872 0.562776 15.139C-0.367621 13.9267 -0.113876 12.2068 1.09846 11.2764L1.09846 11.2764Z"/>
	</g>
	<defs>
		<clipPath id="clip_4">
			<rect x="-805" y="-567" width="1558" height="720" clip-rule="evenodd"/>
		</clipPath>
	</defs>
	<g clip-path="url(#clip_4)">
		<path fill="rgb(60,187,144)" stroke="none" transform="translate(22.1614 35.3929)" d="M4.42533 15.6747C3.91784 16.0412 3.32577 16.2385 2.76189 16.2385C1.91608 16.2385 1.09846 15.872 0.562776 15.139C-0.367621 13.9267 -0.113876 12.2068 1.09846 11.2764L15.1672 0.562775C16.3795 -0.367621 18.0993 -0.113876 19.0297 1.09846C19.9601 2.31079 19.7064 4.03062 18.4941 4.96101L4.42533 15.6747L4.42533 15.6747Z"/>
	</g>
	<defs>
		<clipPath id="clip_5">
			<rect x="-805" y="-567" width="1558" height="720" clip-rule="evenodd"/>
		</clipPath>
	</defs>
	<g clip-path="url(#clip_5)">
		<path fill="rgb(65,157,214)" stroke="none" transform="translate(35.6934 45.5133)" d="M3.04493 6.08987C1.3533 6.08987 0 4.73656 0 3.04493C0 1.3533 1.3533 0 3.04493 0C4.73656 0 6.08987 1.3533 6.08987 3.04493C6.08987 4.73656 4.70837 6.08987 3.04493 6.08987Z"/>
	</g>
</svg>
