<?xml version="1.0" encoding="utf-8" ?>
<svg xmlns="http://www.w3.org/2000/svg" xmlns:xlink="http://www.w3.org/1999/xlink" width="64" height="65">
	<defs>
		<clipPath id="clip_0">
			<rect x="-512" y="-325" width="1558" height="720" clip-rule="evenodd"/>
		</clipPath>
	</defs>
	<g clip-path="url(#clip_0)">
		<path fill="rgb(0,164,120)" stroke="none" transform="translate(0.5 0.700001)" d="M31.7 63.4C49.2074 63.4 63.4 49.2074 63.4 31.7C63.4 14.1926 49.2074 0 31.7 0C14.1926 0 0 14.1926 0 31.7C0 49.2074 14.1926 63.4 31.7 63.4Z"/>
	</g>
	<defs>
		<clipPath id="clip_1">
			<rect x="-512" y="-325" width="1558" height="720" clip-rule="evenodd"/>
		</clipPath>
	</defs>
	<g clip-path="url(#clip_1)">
		<path fill="rgb(255,255,255)" stroke="none" transform="translate(17.9 14.2)" d="M10.7 15.2L10.7 7.1L0 7.1L0 0L29.9 0L29.9 7.2L19.2 7.2L19.2 15.2L10.7 15.2Z"/>
	</g>
	<defs>
		<clipPath id="clip_2">
			<rect x="-512" y="-325" width="1558" height="720" clip-rule="evenodd"/>
		</clipPath>
	</defs>
	<g clip-path="url(#clip_2)">
		<path fill="rgb(255,255,255)" stroke="none" transform="translate(13.3 25.4)" d="M0 4.9C0 2.2 8.6 0 19.3 0C30 0 38.6 2.2 38.6 4.9C38.6 7.6 30 9.8 19.3 9.8C8.6 9.8 0 7.6 0 4.9ZM37 4.9C36.3 3.9 30.5 0.799999 19.3 0.799999C8.1 0.799999 2.3 3.8 1.6 4.9C2.3 5.9 8.1 7.4 19.3 7.4C30.6 7.4 36.3 5.9 37 4.9Z" fill-rule="evenodd"/>
	</g>
	<defs>
		<clipPath id="clip_3">
			<rect x="-512" y="-325" width="1558" height="720" clip-rule="evenodd"/>
		</clipPath>
	</defs>
	<g clip-path="url(#clip_3)">
		<path fill="rgb(255,255,255)" stroke="none" transform="translate(28.7 26.1)" d="M8.4 5.8L8.4 0.2C7 0.1 5.5 0 4 0C2.6 0 1.3 0 0 0.1L0 5.7C1.2 5.7 2.6 5.8 4 5.8C5.5 5.9 7 5.9 8.4 5.8Z"/>
	</g>
	<defs>
		<clipPath id="clip_4">
			<rect x="-512" y="-325" width="1558" height="720" clip-rule="evenodd"/>
		</clipPath>
	</defs>
	<g clip-path="url(#clip_4)">
		<path fill="rgb(255,255,255)" stroke="none" transform="translate(28.6 35)" d="M4 0.2C2.6 0.2 1.3 0.2 0 0.1L0 15L8.4 15L8.4 0C7 0.1 5.5 0.2 4 0.2Z"/>
	</g>
</svg>
