<?xml version="1.0" encoding="utf-8" ?>
<svg xmlns="http://www.w3.org/2000/svg" xmlns:xlink="http://www.w3.org/1999/xlink" width="64" height="64">
	<defs>
		<clipPath id="clip_0">
			<rect x="-945" y="-87" width="1558" height="720" clip-rule="evenodd"/>
		</clipPath>
	</defs>
	<g clip-path="url(#clip_0)">
		<path fill="rgb(22,104,22)" stroke="none" d="M59.3452 15.3761L33.5944 51.8299C33.5944 51.8299 33.0965 52.5908 32.0868 52.5908C31.0764 52.5908 30.4175 51.7859 30.4175 51.7859L25.975 45.8942L52.7306 7.627C47.146 2.87154 39.9081 0 31.9983 0C14.3261 0 0 14.3261 0 31.9983C0 49.6705 14.3261 63.9966 31.9983 63.9966C49.6705 63.9966 63.9966 49.6705 63.9966 31.9983C63.9966 25.911 62.2965 20.2206 59.3452 15.3761ZM11.8538 27.0585L11.789 27.1315L25.196 44.8623L31.3575 36.0461L24.459 27.0585L11.8538 27.0585ZM8.16437 31.1872L10.9533 28.0664L13.3066 31.1872L8.16437 31.1872Z" fill-rule="evenodd"/>
	</g>
</svg>
